…
> 
> ## parallel tune grid
> 
> if(PARALLEL){
+   cl <- makePSOCKcluster(10)
+   registerDoParallel(cl)
+ }
> 
> ## Set up preprocessing
> prepped_recipe <- setup_train_recipe(train, encode=T, 
+                                      pca_threshold=0, scale_to_unit = 1)
> 
> ## Bake recipe
> bake(prepped_recipe, new_data=train)
# A tibble: 371 × 6
   bone_length rotting_flesh hair_length has_soul color type  
         <dbl>         <dbl>       <dbl>    <dbl> <dbl> <fct> 
 1       0.388         0.305      0.383     0.833 0     Ghoul 
 2       0.681         0.395      0.459     0.465 0.419 Goblin
 3       0.538         0.309      0.782     0.844 0.351 Ghoul 
 4       0.947         0.494      0.580     0.945 0.351 Ghoul 
 5       0.668         0.932      0.328     0.677 0.419 Ghost 
 6       0.456         0.188      0.355     0.292 0.419 Goblin
 7       0.448         0.566      0.559     0.495 0.260 Goblin
 8       0.602         0.527      0.553     0.495 0     Ghoul 
 9       0.335         0.688      0.327     0.235 0.236 Ghost 
10       0.291         0.724      0.0520    0.142 0.260 Ghost 
# ℹ 361 more rows
> bake(prepped_recipe, new_data=test)
# A tibble: 529 × 5
   bone_length rotting_flesh hair_length has_soul color
         <dbl>         <dbl>       <dbl>    <dbl> <dbl>
 1       0.543         0.349       0.660    0.744 0.351
 2       0.485         0.656       0.498    0.477 0.260
 3       0.646         0.474       0.608    0.475 0.351
 4       0.763         0.702       0.389    0.375 0.260
 5       0.398         0.584       0.280    0.288 0.351
 6       0.307         0.490       0.189    0.105 0.260
 7       0.692         0.545       0.571    0.529 0.260
 8       0.562         0.434       0.605    0.600 0.236
 9       0.543         0.373       0.383    0.429 0.236
10       0.677         0.264       0.617    0.682 0    
# ℹ 519 more rows
…
